module gitlab.com/tulpenhaendler/TezToolProxy

go 1.12

require (
	github.com/gin-contrib/sse v0.0.0-20190301062529-5545eab6dad3 // indirect
	github.com/gin-gonic/gin v1.3.0 // indirect
	github.com/golang/protobuf v1.3.1 // indirect
	github.com/mattn/go-isatty v0.0.7 // indirect
	github.com/ugorji/go/codec v0.0.0-20190320090025-2dc34c0b8780 // indirect
	gopkg.in/go-playground/validator.v8 v8.18.2 // indirect
	gopkg.in/yaml.v2 v2.2.2 // indirect
)
